Friday, 16-Jun-2017 13:30:09 - restore started
Friday, 16-Jun-2017 13:30:09 - wp version     : 4.7.5
Friday, 16-Jun-2017 13:30:09 - php version    : 5.4.45
Friday, 16-Jun-2017 13:30:09 - mysql version  : 5.6.36
Friday, 16-Jun-2017 13:30:09 - memory limit   : 1024M
Friday, 16-Jun-2017 13:30:09 - execution time : 600
Friday, 16-Jun-2017 13:30:09 - mysql timeout  : 600
Friday, 16-Jun-2017 13:30:09 - socket timeout : 600
Friday, 16-Jun-2017 13:30:09 - file download started
Friday, 16-Jun-2017 13:30:10 - download finished, filesize - 65.57 MB
Friday, 16-Jun-2017 13:30:10 - extracting database using ziparchive
Friday, 16-Jun-2017 13:30:10 - database import started
Friday, 16-Jun-2017 13:30:10 - updating mysql query with current site's url - new query : "INSERT INTO wp_options VALUES("1", "siteurl", "http://demo.hupp.in/university", "yes")"
Friday, 16-Jun-2017 13:30:12 - mysql query failed. error : 1065 Query was empty - query : ""
Friday, 16-Jun-2017 13:30:12 - database import finished
Friday, 16-Jun-2017 13:30:12 - search and replace started
Friday, 16-Jun-2017 13:30:12 - there are 44 tables to scan
Friday, 16-Jun-2017 13:30:13 - search and replace finished
Friday, 16-Jun-2017 13:30:13 - extracting archive using ziparchive
Friday, 16-Jun-2017 13:30:16 - copying files..
Friday, 16-Jun-2017 13:30:17 - deleting temp directory..
Friday, 16-Jun-2017 13:30:19 - deleting downloaded zip file..
Friday, 16-Jun-2017 13:30:19 - restore finished
